INDEX VERSION 1.130+/opt/Projetos/vertigo-ipaas-mule3/.metadata/.plugins/org.eclipse.jdt.core
725732403.index
2451031360.index
1041678835.index
3054898819.index
3874634174.index
2345710824.index
1227405120.index
4155587361.index
2165367701.index
1298521468.index
1614898075.index
212164853.index
1902624772.index
2519337197.index
3240374974.index
970005228.index
4228808575.index
4200378244.index
501323823.index
683914153.index
3343863315.index
634801696.index
2691354043.index
2679743069.index
310836721.index
810056731.index
55985800.index
765493307.index
2984374322.index
824031856.index
759805377.index
3196003013.index
1618413553.index
4162045976.index
721597011.index
1853858671.index
995477718.index
657648660.index
509201560.index
184176639.index
1970998751.index
68021536.index
2033368868.index
3319954732.index
1047118575.index
7504381.index
3209803777.index
3788114003.index
1402287124.index
3223601294.index
3945494578.index
626409461.index
509038042.index
2480899077.index
534945311.index
3150347640.index
1939436419.index
714839125.index
2984882033.index
9595037.index
1665355814.index
833963856.index
3880684937.index
3807510836.index
2603134918.index
3613878675.index
871332208.index
439317818.index
1517746822.index
1305762546.index
1269180837.index
2164575626.index
2294709677.index
3451023099.index
3025558044.index
2488320572.index
3158715923.index
3805668724.index
2621189206.index
2804997564.index
3404896054.index
3880420468.index
52865468.index
3420483421.index
1581232541.index
4270281368.index
3408462775.index
801511333.index
1468797037.index
1334067973.index
3952299290.index
1912759620.index
2659278702.index
1405859045.index
3927260575.index
334837707.index
1988467427.index
2127455985.index
1092291179.index
1210298463.index
2331239973.index
2349346447.index
858911053.index
2064756806.index
2480682071.index
2862277212.index
640741036.index
3250489673.index
452067391.index
175116925.index
536498898.index
2267041245.index
616560185.index
1113733940.index
2519525929.index
1793856363.index
1310440048.index
204588688.index
3429697425.index
24939588.index
3318966418.index
412408323.index
3070090202.index
2824099502.index
77513955.index
1950100351.index
1625898733.index
3393773884.index
958626065.index
3226104073.index
3243344204.index
2001444420.index
4244396218.index
2126650645.index
1118168732.index
893259716.index
2168582641.index
374008753.index
312927446.index
2293246851.index
3728005304.index
3023787082.index
2540358500.index
3112829918.index
1521525974.index
4093169234.index
4263397773.index
1912536095.index
1942008339.index
1908563670.index
971729195.index
2730238051.index
714414389.index
3000472746.index
2208958281.index
3753194541.index
4270231120.index
1833443185.index
2829187513.index
2693613666.index
1370729470.index
2102789969.index
129037757.index
2501665147.index
3000214467.index
4270608059.index
2080564319.index
1182218432.index
2128264999.index
2292909241.index
984368948.index
4194786576.index
1851597782.index
1582149264.index
229418424.index
3699974417.index
1640526222.index
776030483.index
3507718434.index
350748716.index
1133992453.index
668014969.index
686618225.index
3142036128.index
2500860387.index
2103097086.index
2330517648.index
1144974629.index
3493849921.index
2131562935.index
2712994737.index
3771006057.index
2709348128.index
2211021231.index
3554556709.index
1446267182.index
2524162964.index
2041566877.index
2863515288.index
1951123152.index
3629466672.index
3959249569.index
2168142063.index
3069817148.index
3776786000.index
3562725718.index
1726012495.index
3300988440.index
308873774.index
2165026312.index
3592829973.index
1606159855.index
2317014850.index
4063190596.index
3236986262.index
3069469400.index
2794283342.index
2500508573.index
3156807243.index
970510064.index
2259790661.index
757010700.index
902751167.index
891545619.index
3442984306.index
943790337.index
1762379029.index
2479384097.index
2070766615.index
331565711.index
3835237927.index
2335518170.index
1245467609.index
2732411763.index
2863629687.index
1333546116.index
3242033141.index
2219219389.index
3420993583.index
2997131155.index
1788773960.index
440284368.index
3135019057.index
10470138.index
2043275649.index
4220830934.index
3189941000.index
944319192.index
1566579028.index
991087823.index
3643588659.index
4125297239.index
9898915.index
150344349.index
799789564.index
617972091.index
1135462590.index
4218070780.index
2516688949.index
1276274037.index
3055080567.index
2020930315.index
125261061.index
2135901115.index
4098738505.index
3574094973.index
1150858256.index
825894577.index
2225535903.index
3132585915.index
3570897301.index
431459326.index
3396750742.index
3456866568.index
794539062.index
32129647.index
2346110442.index
400805266.index
1376813242.index
930322083.index
1205777075.index
869847747.index
697605921.index
2440360267.index
3799882859.index
2428255135.index
1604872106.index
2601052994.index
3790019379.index
289450050.index
1962082436.index
2731133460.index
222802929.index
3450715727.index
2145376825.index
3707053831.index
1974475577.index
327299639.index
2006662438.index
1495869454.index
971251295.index
860562016.index
623909369.index
3403503962.index
1509294245.index
3321344081.index
1668538224.index
4010244990.index
3788341710.index
758013539.index
3921170176.index
445820383.index
1968484258.index
1454977623.index
3021872302.index
2946562345.index
237176805.index
1338619954.index
120514537.index
585611198.index
2074562724.index
2797171468.index
1318461310.index
4110444524.index
1733340477.index
1364313539.index
3472648217.index
1706495484.index
2575148283.index
967477580.index
2827251192.index
3280001497.index
255981111.index
2058135552.index
2972184644.index
788288865.index
1328149188.index
2516377628.index
830263994.index
1979855592.index
2548363413.index
1168370008.index
2643365814.index
3514509140.index
1997231066.index
1184467767.index
3567052197.index
